…
Select commands

select(hotels, lead_time)

## # A tibble: 119,390 x 1
##    lead_time
##        <dbl>
##  1       342
##  2       737
##  3         7
##  4        13
##  5        14
##  6        14
##  7         0
##  8         9
##  9        85
## 10        75
## # ... with 119,380 more rows

select(hotels, hotel, lead_time)

## # A tibble: 119,390 x 2
##    hotel        lead_time
##    <chr>            <dbl>
##  1 Resort Hotel       342
##  2 Resort Hotel       737
##  3 Resort Hotel         7
##  4 Resort Hotel        13
##  5 Resort Hotel        14
##  6 Resort Hotel        14
##  7 Resort Hotel         0
##  8 Resort Hotel         9
##  9 Resort Hotel        85
## 10 Resort Hotel        75
## # ... with 119,380 more rows

hotels %>% 
  select(hotel, lead_time) %>%
  arrange(desc(lead_time))

## # A tibble: 119,390 x 2
##    hotel        lead_time
##    <chr>            <dbl>
##  1 Resort Hotel       737
##  2 Resort Hotel       709
##  3 City Hotel         629
##  4 City Hotel         629
##  5 City Hotel         629
##  6 City Hotel         629
##  7 City Hotel         629
##  8 City Hotel         629
##  9 City Hotel         629
## 10 City Hotel         629
## # ... with 119,380 more rows
