…
## Warning: package 'pacman' was built under R version 4.1.3

pacman::p_load(pacman,readxl, magrittr, productplots, psych, RColorBrewer, tidyverse)
diamonds <- read_excel("C:/Users/prana/Downloads/Professor_Proposes_Data.xlsx")
attach(diamonds)
diamonds$Colour <- as.factor(Colour)
diamonds$Clarity <- as.factor(Clarity)
diamonds$Cut <- as.factor(Cut)
diamonds$Certification <- as.factor(Certification)
diamonds$Polish <- as.factor(Polish)
diamonds$Symmetry <- as.factor(Symmetry)
diamonds$Wholesaler <- as.factor(Wholesaler)
diamonds

## # A tibble: 440 x 9
##    Carat Colour Clarity Cut   Certification Polish Symmetry Price Wholesaler
##    <dbl> <fct>  <fct>   <fct> <fct>         <fct>  <fct>    <dbl> <fct>     
##  1  0.92 I      SI2     G     AGS           V      V         3000 1         
##  2  0.92 I      SI2     V     AGS           G      G         3000 1         
##  3  0.82 F      SI2     I     GIA           X      X         3004 1         
##  4  0.81 G      SI1     I     GIA           X      V         3004 1         
##  5  0.9  J      VS2     V     GIA           V      V         3006 1         
##  6  0.87 F      SI2     I     AGS           G      V         3007 1         
##  7  0.8  D      SI2     I     GIA           V      V         3008 1         
##  8  0.84 F      SI1     G     GIA           V      V         3010 1         
##  9  0.8  D      SI2     V     GIA           V      V         3012 1         
## 10  0.8  D      SI2     V     GIA           V      X         3012 1         
## # ... with 430 more rows
#Graphing and frequency counting of each variable

diamonds %>%
  ggplot() +
  geom_bar(aes(Carat, fill =  Carat)) +
  theme(
    axis.title.x = element_blank(),
    legend.position = "none"
  )

<img src="{{< blogdown/postref >}}index_files/figure-html/unnamed-chunk-2-1.png" width="672" />

count(diamonds, Carat)

## # A tibble: 50 x 2
##    Carat     n
##    <dbl> <int>
##  1  0.09     5
##  2  0.1     13
##  3  0.11     5
##  4  0.2      1
##  5  0.21     7
##  6  0.22     5
##  7  0.23     7
##  8  0.27     1
##  9  0.28     2
## 10  0.3    154
## # ... with 40 more rows
…
